[?2004h[?1049h[22;0;0t[?1h=[?2004h[1;24r[?12h[?12l[27m[23m[29m[m[H[2J[?25l[24;1H"longfile.txt" 131L, 415C[1;1H83
84
85
86
87
88
89
90
91
92
93
94
95
96
97
98
99
100
101
102
103
104
105[24;63H94,1[10C75%[12;1H[?25h[?25l[24;53H7[12;1H[?25h[?25l[24;54H^Z[12;1H[24;1H
[?2004l[?1l>[?25h[?1049l[23;0;0t[?2004l